Introduction to tidygraph & ggraph
…
There is activate() function to access the nodes or the edges dataset. Since tidygraph was built under dplyr environment, any functionality in dplyr package is also can be accessed.

media %>% activate(edges) %>% as_tibble()

## # A tibble: 52 x 4
##     from    to weight type     
##    <int> <int>  <int> <fct>    
##  1     1     2     10 hyperlink
##  2     1     2     12 hyperlink
##  3     1     3     22 hyperlink
##  4     1     4     21 hyperlink
##  5     4     5     22 mention  
##  6     6     7     21 mention  
##  7     8     9     21 mention  
##  8    10    11     11 mention  
##  9    10    11     12 mention  
## 10     3     4     22 hyperlink
## # ... with 42 more rows
…
shortest <- shortest %>%
  activate(nodes) %>% 
  mutate(selected_node = TRUE) %>%
  activate(edges) %>%
  mutate(selected_edge = TRUE) %>%
  unmorph() 

shortest %>% activate(edges) %>% as_tibble()

## # A tibble: 21 x 5
##     from    to weight type    selected_edge
##    <int> <int>  <int> <fct>   <lgl>        
##  1     4     5     22 mention NA           
##  2     6     7     21 mention NA           
##  3     8     9     21 mention NA           
##  4    10    11     11 mention NA           
##  5    10    11     12 mention NA           
##  6     1     7     20 mention NA           
##  7    12     9     21 mention NA           
##  8    11    13     21 mention NA           
##  9    10    14     21 mention NA           
## 10    14    10     22 mention NA           
## # ... with 11 more rows
…
